[
  {
    "id": 24756,
    "iid": 123,
    "project_id": 1,
    "title": "New feature",
    "description": "Something incredible",
    "state": "merged",
    "target_branch": "release/10.4",
    "source_branch": "feature/new-thing",
    "author": {
      "id": 42,
      "name": "John",
      "username": "john"
    },
    "merge_when_pipeline_succeeds": false,
    "merge_status": "can_be_merged",
    "sha": "f3efec202986f820eaa1dc76db34b095e73a99f6",
    "merge_commit_sha": "3e4862ac6d492807a0b2a6ba3dde819716dbfae1",
    "web_url": "https://gitlab.com/example/foo/merge_requests/123"
  },
  {
    "id": 24757,
    "iid": 124,
    "project_id": 1,
    "title": "release/10.5: Fancy feature",
    "description": "<!-- json \"automerge\" --><!-- {\"merge_request_iid\":99} --><!-- json \"automerge\" -->",
    "state": "merged",
    "target_branch": "release/10.5",
    "source_branch": "automerge/99/release/10.5",
    "author": {
      "id": 42,
      "name": "John",
      "username": "john"
    },
    "merge_when_pipeline_succeeds": false,
    "merge_status": "can_be_merged",
    "sha": "aa5bfb91878ff5341207fcf4dde425779e6dbe2d",
    "merge_commit_sha": "523ed2e72962e97be2603ab78aa13b372da582fa",
    "web_url": "https://gitlab.com/example/foo/merge_requests/124"
  },
  {
    "id": 24758,
    "iid": 125,
    "project_id": 1,
    "title": "release/10.6: Clever feature",
    "description": "<!-- json \"automerge\" --><!-- {\"commit_sha\": \"14cc2c372c7d41b8fa05f851fc9111116e121a7a\"} --><!-- json \"automerge\" -->",
    "state": "merged",
    "target_branch": "release/10.6",
    "source_branch": "automerge/98/release/10.6",
    "author": {
      "id": 42,
      "name": "John",
      "username": "john"
    },
    "merge_when_pipeline_succeeds": false,
    "merge_status": "can_be_merged",
    "sha": "bfed231152fa476aa4be6e221d65dc5225d19537",
    "merge_commit_sha": "9209736a22501dd4ea16afee86d0968bead84100",
    "web_url": "https://gitlab.com/example/foo/merge_requests/125"
  }
]
